# Blender v2.80 (sub 75) OBJ File: ''
# www.blender.org
v 0.000000 9.807853 -1.950903
v 0.000000 9.238795 -3.826835
v 0.000000 8.314696 -5.555702
v 0.000000 7.071068 -7.071068
v 0.000000 5.555702 -8.314696
v 0.000000 3.826834 -9.238795
v 0.000000 1.950904 -9.807853
v 0.000000 0.000001 -10.000000
v 0.000000 -1.950902 -9.807853
v 0.000000 -8.314696 -5.555702
v 0.380603 9.807853 -1.913417
v 0.746579 9.238795 -3.753303
v 1.083864 8.314696 -5.448951
v 1.379498 7.071068 -6.935199
v 1.622118 5.555702 -8.154932
v 1.802400 3.826834 -9.061274
v 1.913418 1.950904 -9.619397
v 1.950904 0.000001 -9.807853
v 1.913418 -1.950902 -9.619397
v 1.802400 -3.826833 -9.061275
v 1.622118 -5.555702 -8.154932
v 1.379498 -7.071068 -6.935199
v 1.083864 -8.314696 -5.448951
v 0.746579 -9.238796 -3.753301
v 0.380603 -9.807853 -1.913415
v 0.746580 9.807853 -1.802399
v 1.464467 9.238795 -3.535534
v 2.126076 8.314696 -5.132799
v 2.705982 7.071068 -6.532814
v 3.181898 5.555702 -7.681777
v 3.535535 3.826834 -8.535533
v 3.753304 1.950904 -9.061274
v 3.826835 0.000001 -9.238794
v 3.753304 -1.950902 -9.061274
v 3.535535 -3.826833 -8.535534
v 3.181898 -5.555702 -7.681777
v 2.705982 -7.071068 -6.532814
v 2.126076 -8.314696 -5.132799
v 1.464467 -9.238796 -3.535532
v 0.746579 -9.807853 -1.802397
v 1.083866 9.807853 -1.622116
v 2.126077 9.238795 -3.181896
v 3.086585 8.314696 -4.619397
v 3.928477 7.071068 -5.879377
v 4.619399 5.555702 -6.913416
v 5.132801 3.826834 -7.681776
v 5.448952 1.950904 -8.154930
v 5.555704 0.000001 -8.314694
v 5.448952 -1.950902 -8.154930
v 5.132801 -3.826833 -7.681777
v 4.619399 -5.555702 -6.913416
v 3.928477 -7.071068 -5.879377
v 3.086584 -8.314696 -4.619396
v 2.126076 -9.238796 -3.181895
v 1.083864 -9.807853 -1.622114
v 1.379499 9.807853 -1.379496
v 2.705983 9.238795 -2.705980
v 3.928477 8.314696 -3.928473
v 5.000002 7.071068 -4.999999
v 5.879380 5.555702 -5.879376
v 6.532816 3.826834 -6.532813
v 6.935201 1.950904 -6.935197
v 7.071070 0.000001 -7.071066
v 6.935201 -1.950902 -6.935197
v 6.532816 -3.826833 -6.532814
v 5.879380 -5.555702 -5.879376
v 5.000002 -7.071068 -4.999999
v 3.928477 -8.314696 -3.928473
v 2.705982 -9.238796 -2.705979
v 1.379497 -9.807853 -1.379494
v 1.622119 9.807853 -1.083862
v 3.181899 9.238795 -2.126074
v 4.619400 8.314696 -3.086581
v 5.879380 7.071068 -3.928473
v 6.913419 5.555702 -4.619396
v 7.681779 3.826834 -5.132798
v 8.154933 1.950904 -5.448948
v 8.314698 0.000001 -5.555700
v 8.154933 -1.950902 -5.448948
v 7.681779 -3.826833 -5.132799
v 6.913419 -5.555702 -4.619396
v 5.879380 -7.071068 -3.928473
v 4.619399 -8.314696 -3.086581
v 3.181898 -9.238796 -2.126073
v 1.622117 -9.807853 -1.083861
v 1.802402 9.807853 -0.746576
v 3.535537 9.238795 -1.464464
v 5.132802 8.314696 -2.126073
v 6.532817 7.071068 -2.705978
v 7.681780 5.555702 -3.181894
v 8.535536 3.826834 -3.535532
v 9.061275 1.950904 -3.753299
v 9.238797 0.000001 -3.826832
v 9.061275 -1.950902 -3.753299
v 8.535536 -3.826833 -3.535532
v 7.681780 -5.555702 -3.181894
v 6.532817 -7.071068 -2.705978
v 5.132802 -8.314696 -2.126073
v 3.535535 -9.238796 -1.464464
v 1.802400 -9.807853 -0.746576
v 1.913420 9.807853 -0.380600
v 3.753306 9.238795 -0.746576
v 5.448954 8.314696 -1.083861
v 6.935201 7.071068 -1.379494
v 8.154934 5.555702 -1.622114
v 9.061275 3.826834 -1.802397
v 9.619398 1.950904 -1.913413
v 9.807855 0.000001 -1.950900
v 9.619398 -1.950902 -1.913413
v 9.061275 -3.826833 -1.802398
v 8.154934 -5.555702 -1.622114
v 6.935201 -7.071068 -1.379494
v 5.448953 -8.314696 -1.083861
v 3.753304 -9.238796 -0.746576
v 1.913418 -9.807853 -0.380599
v 1.950906 9.807853 0.000003
v 3.826837 9.238795 0.000003
v 5.555705 8.314696 0.000003
v 7.071070 7.071068 0.000003
v 8.314697 5.555702 0.000003
v 9.238797 3.826834 0.000003
v 9.807853 1.950904 0.000004
v 10.000002 0.000001 0.000004
v 9.807853 -1.950902 0.000004
v 9.238797 -3.826833 0.000002
v 8.314697 -5.555702 0.000003
v 7.071070 -7.071068 0.000003
v 5.555704 -8.314696 0.000003
v 3.826835 -9.238796 0.000003
v 1.950904 -9.807853 0.000003
v 1.913420 9.807853 0.380606
v 3.753305 9.238795 0.746582
v 5.448954 8.314696 1.083867
v 6.935201 7.071068 1.379500
v 8.154933 5.555702 1.622120
v 9.061275 3.826834 1.802403
v 9.619397 1.950904 1.913421
v 9.807855 0.000001 1.950907
v 9.619397 -1.950902 1.913421
v 9.061275 -3.826833 1.802402
v 8.154933 -5.555702 1.622120
v 6.935201 -7.071068 1.379500
v 5.448952 -8.314696 1.083867
v 3.753304 -9.238796 0.746582
v 1.913418 -9.807853 0.380606
v 1.802402 9.807853 0.746583
v 3.535536 9.238795 1.464470
v 5.132802 8.314696 2.126079
v 6.532816 7.071068 2.705984
v 7.681778 5.555702 3.181901
v 8.535536 3.826834 3.535537
v 9.061274 1.950904 3.753306
v 9.238797 0.000001 3.826839
v 9.061274 -1.950902 3.753306
v 8.535536 -3.826833 3.535537
v 7.681778 -5.555702 3.181901
v 6.532816 -7.071068 2.705984
v 5.132800 -8.314696 2.126079
v 3.535535 -9.238796 1.464470
v 1.802400 -9.807853 0.746582
v 1.622119 9.807853 1.083869
v 3.181899 9.238795 2.126080
v 4.619399 8.314696 3.086587
v 5.879379 7.071068 3.928478
v 6.913418 5.555702 4.619402
v 7.681779 3.826834 5.132803
v 8.154930 1.950904 5.448954
v 8.314697 0.000001 5.555707
v 8.154930 -1.950902 5.448954
v 7.681779 -3.826833 5.132803
v 6.913418 -5.555702 4.619402
v 5.879379 -7.071068 3.928478
v 4.619398 -8.314696 3.086586
v 3.181897 -9.238796 2.126079
v 1.622117 -9.807853 1.083867
v 1.379498 9.807853 1.379502
v 2.705982 9.238795 2.705985
v 3.928476 8.314696 3.928479
v 5.000000 7.071068 5.000004
v 5.879378 5.555702 5.879382
v 6.532816 3.826834 6.532818
v 6.935198 1.950904 6.935202
v 7.071068 0.000001 7.071073
v 6.935198 -1.950902 6.935202
v 6.532816 -3.826833 6.532818
v 5.879378 -5.555702 5.879382
v 5.000000 -7.071068 5.000004
v 3.928475 -8.314696 3.928478
v 2.705981 -9.238796 2.705984
v 1.379497 -9.807853 1.379500
v 1.083865 9.807853 1.622122
v 2.126076 9.238795 3.181901
v 3.086584 8.314696 4.619402
v 3.928475 7.071068 5.879382
v 4.619397 5.555702 6.913421
v 5.132801 3.826834 7.681781
v 5.448950 1.950904 8.154934
v 5.555702 0.000001 8.314701
v 5.448950 -1.950902 8.154934
v 5.132801 -3.826833 7.681781
v 4.619397 -5.555702 6.913421
v 3.928475 -7.071068 5.879382
v 3.086583 -8.314696 4.619401
v 2.126076 -9.238796 3.181900
v 1.083864 -9.807853 1.622120
v 0.000000 -10.000000 0.000003
v 0.746579 9.807853 1.802405
v 1.464467 9.238795 3.535538
v 2.126076 8.314696 5.132804
v 2.705980 7.071068 6.532818
v 3.181896 5.555702 7.681780
v 3.535535 3.826834 8.535537
v 3.753302 1.950904 9.061276
v 3.826834 0.000001 9.238800
v 3.753302 -1.950902 9.061276
v 3.535535 -3.826833 8.535537
v 3.181896 -5.555702 7.681780
v 2.705980 -7.071068 6.532818
v 2.126075 -8.314696 5.132803
v 1.464466 -9.238796 3.535537
v 0.746579 -9.807853 1.802403
v 0.380603 9.807853 1.913422
v 0.746579 9.238795 3.753307
v 1.083864 8.314696 5.448956
v 1.379497 7.071068 6.935203
v 1.622116 5.555702 8.154934
v 1.802400 3.826834 9.061277
v 1.913416 1.950904 9.619399
v 1.950902 0.000001 9.807858
v 1.913416 -1.950902 9.619399
v 1.802400 -3.826833 9.061277
v 1.622116 -5.555702 8.154934
v 1.379497 -7.071068 6.935203
v 1.083864 -8.314696 5.448954
v 0.746578 -9.238796 3.753306
v 0.380602 -9.807853 1.913420
v -0.000000 9.807853 1.950908
v 0.000000 9.238795 3.826838
v 0.000000 8.314696 5.555707
v -0.000000 7.071068 7.071071
v -0.000001 5.555702 8.314697
v 0.000001 3.826834 9.238798
v -0.000001 1.950904 9.807854
v -0.000001 0.000001 10.000004
v -0.000001 -1.950902 9.807854
v 0.000001 -3.826833 9.238798
v -0.000001 -5.555702 8.314697
v -0.000000 -7.071068 7.071071
v -0.000000 -8.314696 5.555705
v 0.000000 -9.238796 3.826837
v 0.000000 -9.807853 1.950906
v -0.380603 9.807853 1.913422
v -0.746578 9.238795 3.753307
v -1.083864 8.314696 5.448956
v -1.379497 7.071068 6.935202
v -1.622117 5.555702 8.154932
v -1.802399 3.826834 9.061277
v -1.913418 1.950904 9.619398
v -1.950904 0.000001 9.807856
v -1.913418 -1.950902 9.619398
v -1.802399 -3.826833 9.061277
v -1.622117 -5.555702 8.154932
v -1.379497 -7.071068 6.935202
v -1.083864 -8.314696 5.448954
v -0.746578 -9.238796 3.753305
v -0.380602 -9.807853 1.913420
v -0.746579 9.807853 1.802404
v -1.464466 9.238795 3.535537
v -2.126075 8.314696 5.132804
v -2.705981 7.071068 6.532817
v -3.181896 5.555702 7.681777
v -3.535533 3.826834 8.535537
v -3.753303 1.950904 9.061275
v -3.826836 0.000001 9.238798
v -3.753303 -1.950902 9.061275
v -3.535533 -3.826833 8.535537
v -3.181896 -5.555702 7.681777
v -2.705981 -7.071068 6.532817
v -2.126075 -8.314696 5.132802
v -1.464466 -9.238796 3.535536
v -0.746578 -9.807853 1.802402
v -1.083865 9.807853 1.622121
v -2.126075 9.238795 3.181900
v -3.086583 8.314696 4.619402
v -3.928475 7.071068 5.879381
v -4.619397 5.555702 6.913417
v -5.132799 3.826834 7.681780
v -5.448951 1.950904 8.154932
v -5.555704 0.000001 8.314698
v -5.448951 -1.950902 8.154932
v -5.132799 -3.826833 7.681780
v -4.619397 -5.555702 6.913417
v -3.928475 -7.071068 5.879381
v -3.086582 -8.314696 4.619400
v -2.126075 -9.238796 3.181899
v -1.083863 -9.807853 1.622120
v -0.000002 10.000000 0.000006
v -1.379498 9.807853 1.379501
v -2.705981 9.238795 2.705984
v -3.928475 8.314696 3.928479
v -5.000000 7.071068 5.000002
v -5.879376 5.555702 5.879378
v -6.532814 3.826834 6.532817
v -6.935198 1.950904 6.935199
v -7.071069 0.000001 7.071070
v -6.935198 -1.950902 6.935199
v -6.532814 -3.826833 6.532817
v -5.879376 -5.555702 5.879378
v -5.000000 -7.071068 5.000002
v -3.928474 -8.314696 3.928477
v -2.705980 -9.238796 2.705983
v -1.379496 -9.807853 1.379500
v -1.622118 9.807853 1.083868
v -3.181896 9.238795 2.126078
v -4.619398 8.314696 3.086586
v -5.879378 7.071068 3.928477
v -6.913415 5.555702 4.619398
v -7.681777 3.826834 5.132803
v -8.154929 1.950904 5.448951
v -8.314696 0.000001 5.555704
v -8.154929 -1.950902 5.448951
v -7.681777 -3.826833 5.132803
v -6.913415 -5.555702 4.619398
v -5.879378 -7.071068 3.928477
v -4.619397 -8.314696 3.086585
v -3.181896 -9.238796 2.126077
v -1.622116 -9.807853 1.083867
v -1.802401 9.807853 0.746582
v -3.535533 9.238795 1.464469
v -5.132800 8.314696 2.126078
v -6.532815 7.071068 2.705983
v -7.681775 5.555702 3.181897
v -8.535534 3.826834 3.535537
v -9.061272 1.950904 3.753302
v -9.238795 0.000001 3.826835
v -9.061272 -1.950902 3.753302
v -8.535534 -3.826833 3.535537
v -7.681775 -5.555702 3.181897
v -6.532815 -7.071068 2.705983
v -5.132799 -8.314696 2.126077
v -3.535533 -9.238796 1.464468
v -1.802399 -9.807853 0.746581
v -1.913419 9.807853 0.380606
v -3.753302 9.238795 0.746581
v -5.448951 8.314696 1.083867
v -6.935199 7.071068 1.379499
v -8.154928 5.555702 1.622118
v -9.061274 3.826834 1.802403
v -9.619394 1.950904 1.913417
v -9.807852 0.000001 1.950904
v -9.619394 -1.950902 1.913417
v -9.061274 -3.826833 1.802403
v -8.154928 -5.555702 1.622118
v -6.935199 -7.071068 1.379499
v -5.448950 -8.314696 1.083866
v -3.753301 -9.238796 0.746581
v -1.913416 -9.807853 0.380605
v -1.950905 9.807853 0.000003
v -3.826834 9.238795 0.000003
v -5.555702 8.314696 0.000003
v -7.071067 7.071068 0.000002
v -8.314692 5.555702 0.000001
v -9.238794 3.826834 0.000003
v -9.807848 1.950904 0.000001
v -9.999998 0.000001 0.000001
v -9.807848 -1.950902 0.000001
v -9.238794 -3.826833 0.000003
v -8.314692 -5.555702 0.000001
v -7.071067 -7.071068 0.000002
v -5.555701 -8.314696 0.000003
v -3.826833 -9.238796 0.000003
v -1.950902 -9.807853 0.000003
v -1.913419 9.807853 -0.380599
v -3.753302 9.238795 -0.746575
v -5.448951 8.314696 -1.083861
v -6.935198 7.071068 -1.379495
v -8.154927 5.555702 -1.622115
v -9.061274 3.826834 -1.802396
v -9.619392 1.950904 -1.913415
v -9.807850 0.000001 -1.950902
v -9.619392 -1.950902 -1.913415
v -9.061274 -3.826833 -1.802396
v -8.154927 -5.555702 -1.622115
v -6.935198 -7.071068 -1.379495
v -5.448949 -8.314696 -1.083861
v -3.753301 -9.238796 -0.746575
v -1.913416 -9.807853 -0.380599
v -1.802401 9.807853 -0.746576
v -3.535533 9.238795 -1.464463
v -5.132799 8.314696 -2.126072
v -6.532813 7.071068 -2.705978
v -7.681773 5.555702 -3.181894
v -8.535533 3.826834 -3.535531
v -9.061269 1.950904 -3.753300
v -9.238792 0.000001 -3.826832
v -9.061269 -1.950902 -3.753300
v -8.535533 -3.826833 -3.535531
v -7.681773 -5.555702 -3.181894
v -6.532813 -7.071068 -2.705978
v -5.132797 -8.314696 -2.126072
v -3.535532 -9.238796 -1.464463
v -1.802399 -9.807853 -0.746575
v -1.622118 9.807853 -1.083861
v -3.181896 9.238795 -2.126072
v -4.619396 8.314696 -3.086580
v -5.879376 7.071068 -3.928473
v -6.913412 5.555702 -4.619394
v -7.681776 3.826834 -5.132796
v -8.154925 1.950904 -5.448947
v -8.314692 0.000001 -5.555699
v -8.154925 -1.950902 -5.448947
v -7.681776 -3.826833 -5.132796
v -6.913412 -5.555702 -4.619394
v -5.879376 -7.071068 -3.928473
v -4.619395 -8.314696 -3.086579
v -3.181894 -9.238796 -2.126072
v -1.622116 -9.807853 -1.083860
v -1.379498 9.807853 -1.379495
v -2.705979 9.238795 -2.705977
v -3.928473 8.314696 -3.928472
v -4.999999 7.071068 -4.999997
v -5.879373 5.555702 -5.879374
v -6.532814 3.826834 -6.532811
v -6.935194 1.950904 -6.935194
v -7.071064 0.000001 -7.071064
v -6.935194 -1.950902 -6.935194
v -6.532814 -3.826833 -6.532811
v -5.879373 -5.555702 -5.879374
v -4.999999 -7.071068 -4.999997
v -3.928473 -8.314696 -3.928471
v -2.705979 -9.238796 -2.705976
v -1.379496 -9.807853 -1.379493
v -1.083864 9.807853 -1.622115
v -2.126074 9.238795 -3.181893
v -3.086581 8.314696 -4.619394
v -3.928473 7.071068 -5.879375
v -4.619393 5.555702 -6.913412
v -5.132799 3.826834 -7.681773
v -5.448946 1.950904 -8.154924
v -5.555698 0.000001 -8.314692
v -5.448946 -1.950902 -8.154924
v -5.132799 -3.826833 -7.681773
v -4.619393 -5.555702 -6.913412
v -3.928473 -7.071068 -5.879375
v -3.086581 -8.314696 -4.619393
v -2.126074 -9.238796 -3.181892
v -1.083863 -9.807853 -1.622113
v -0.746579 9.807853 -1.802398
v -1.464465 9.238795 -3.535530
v -2.126074 8.314696 -5.132795
v -2.705979 7.071068 -6.532812
v -3.181892 5.555702 -7.681771
v -3.535533 3.826834 -8.535529
v -3.753298 1.950904 -9.061266
v -3.826830 0.000001 -9.238789
v -3.753298 -1.950902 -9.061266
v -3.535533 -3.826833 -8.535529
v -3.181892 -5.555702 -7.681771
v -2.705979 -7.071068 -6.532812
v -2.126073 -8.314696 -5.132794
v -1.464465 -9.238796 -3.535529
v -0.746578 -9.807853 -1.802396
v -0.380602 9.807853 -1.913415
v -0.746577 9.238795 -3.753299
v -1.083862 8.314696 -5.448946
v -1.379495 7.071068 -6.935195
v -1.622113 5.555702 -8.154924
v -1.802399 3.826834 -9.061270
v -1.913413 1.950904 -9.619389
v -1.950900 0.000001 -9.807845
v -1.913413 -1.950902 -9.619389
v -1.802399 -3.826833 -9.061270
v -1.622113 -5.555702 -8.154924
v -1.379495 -7.071068 -6.935195
v -1.083862 -8.314696 -5.448945
v -0.746577 -9.238796 -3.753298
v -0.380602 -9.807853 -1.913413
v 0.000001 -3.826833 -9.238791
v 0.000003 -5.555702 -8.314688
v 0.000002 -7.071068 -7.071064
v 0.000001 -9.238796 -3.826829
v 0.000000 -9.807853 -1.950899
s off
f 478 21 479
f 3 14 4
f 479 22 480
f 4 15 5
f 480 23 10
f 5 16 6
f 10 24 481
f 6 17 7
f 481 25 482
f 7 18 8
f 1 297 11
f 206 482 25
f 8 19 9
f 1 12 2
f 9 20 478
f 3 12 13
f 20 34 35
f 12 28 13
f 20 36 21
f 13 29 14
f 22 36 37
f 14 30 15
f 22 38 23
f 15 31 16
f 23 39 24
f 16 32 17
f 24 40 25
f 17 33 18
f 11 297 26
f 206 25 40
f 19 33 34
f 11 27 12
f 38 54 39
f 32 46 47
f 39 55 40
f 32 48 33
f 26 297 41
f 206 40 55
f 33 49 34
f 26 42 27
f 34 50 35
f 27 43 28
f 36 50 51
f 28 44 29
f 37 51 52
f 29 45 30
f 37 53 38
f 30 46 31
f 42 58 43
f 51 65 66
f 43 59 44
f 51 67 52
f 44 60 45
f 52 68 53
f 45 61 46
f 53 69 54
f 46 62 47
f 54 70 55
f 48 62 63
f 41 297 56
f 206 55 70
f 48 64 49
f 41 57 42
f 49 65 50
f 61 77 62
f 69 85 70
f 63 77 78
f 56 297 71
f 206 70 85
f 63 79 64
f 56 72 57
f 64 80 65
f 57 73 58
f 66 80 81
f 58 74 59
f 66 82 67
f 60 74 75
f 68 82 83
f 60 76 61
f 69 83 84
f 81 95 96
f 73 89 74
f 82 96 97
f 75 89 90
f 82 98 83
f 75 91 76
f 84 98 99
f 77 91 92
f 84 100 85
f 77 93 78
f 71 297 86
f 206 85 100
f 78 94 79
f 71 87 72
f 79 95 80
f 72 88 73
f 100 114 115
f 92 108 93
f 86 297 101
f 206 100 115
f 93 109 94
f 86 102 87
f 94 110 95
f 87 103 88
f 96 110 111
f 89 103 104
f 97 111 112
f 89 105 90
f 97 113 98
f 90 106 91
f 98 114 99
f 92 106 107
f 103 119 104
f 111 127 112
f 104 120 105
f 113 127 128
f 105 121 106
f 114 128 129
f 107 121 122
f 115 129 130
f 107 123 108
f 101 297 116
f 206 115 130
f 109 123 124
f 101 117 102
f 109 125 110
f 102 118 103
f 111 125 126
f 122 138 123
f 116 297 131
f 206 130 145
f 123 139 124
f 117 131 132
f 124 140 125
f 117 133 118
f 126 140 141
f 118 134 119
f 126 142 127
f 120 134 135
f 128 142 143
f 120 136 121
f 128 144 129
f 122 136 137
f 130 144 145
f 141 157 142
f 134 150 135
f 142 158 143
f 135 151 136
f 144 158 159
f 137 151 152
f 144 160 145
f 137 153 138
f 131 297 146
f 206 145 160
f 138 154 139
f 131 147 132
f 139 155 140
f 133 147 148
f 141 155 156
f 133 149 134
f 206 160 175
f 154 168 169
f 146 162 147
f 154 170 155
f 147 163 148
f 156 170 171
f 148 164 149
f 156 172 157
f 150 164 165
f 158 172 173
f 150 166 151
f 158 174 159
f 152 166 167
f 159 175 160
f 152 168 153
f 146 297 161
f 173 187 188
f 165 181 166
f 173 189 174
f 167 181 182
f 175 189 190
f 167 183 168
f 161 297 176
f 206 175 190
f 168 184 169
f 161 177 162
f 169 185 170
f 162 178 163
f 170 186 171
f 163 179 164
f 171 187 172
f 164 180 165
f 176 192 177
f 184 200 185
f 177 193 178
f 186 200 201
f 179 193 194
f 186 202 187
f 180 194 195
f 188 202 203
f 180 196 181
f 188 204 189
f 182 196 197
f 190 204 205
f 182 198 183
f 176 297 191
f 206 190 205
f 184 198 199
f 195 212 196
f 203 220 204
f 197 212 213
f 204 221 205
f 197 214 198
f 191 297 207
f 206 205 221
f 198 215 199
f 191 208 192
f 199 216 200
f 193 208 209
f 201 216 217
f 193 210 194
f 201 218 202
f 194 211 195
f 203 218 219
f 215 231 216
f 208 224 209
f 217 231 232
f 209 225 210
f 217 233 218
f 210 226 211
f 218 234 219
f 211 227 212
f 219 235 220
f 213 227 228
f 221 235 236
f 213 229 214
f 207 297 222
f 206 221 236
f 214 230 215
f 207 223 208
f 234 250 235
f 228 242 243
f 236 250 251
f 228 244 229
f 222 297 237
f 206 236 251
f 229 245 230
f 222 238 223
f 230 246 231
f 224 238 239
f 232 246 247
f 225 239 240
f 232 248 233
f 225 241 226
f 234 248 249
f 226 242 227
f 238 254 239
f 247 261 262
f 240 254 255
f 247 263 248
f 241 255 256
f 248 264 249
f 241 257 242
f 249 265 250
f 243 257 258
f 250 266 251
f 243 259 244
f 237 297 252
f 206 251 266
f 244 260 245
f 237 253 238
f 245 261 246
f 258 272 273
f 266 280 281
f 258 274 259
f 252 297 267
f 206 266 281
f 260 274 275
f 252 268 253
f 260 276 261
f 253 269 254
f 262 276 277
f 255 269 270
f 262 278 263
f 256 270 271
f 263 279 264
f 256 272 257
f 265 279 280
f 277 291 292
f 269 285 270
f 277 293 278
f 271 285 286
f 279 293 294
f 271 287 272
f 279 295 280
f 273 287 288
f 281 295 296
f 273 289 274
f 267 297 282
f 206 281 296
f 274 290 275
f 267 283 268
f 275 291 276
f 268 284 269
f 295 312 296
f 289 304 305
f 282 297 298
f 206 296 312
f 289 306 290
f 282 299 283
f 290 307 291
f 283 300 284
f 292 307 308
f 285 300 301
f 292 309 293
f 286 301 302
f 293 310 294
f 286 303 287
f 294 311 295
f 288 303 304
f 308 324 309
f 302 316 317
f 309 325 310
f 302 318 303
f 311 325 326
f 304 318 319
f 311 327 312
f 304 320 305
f 298 297 313
f 206 312 327
f 305 321 306
f 298 314 299
f 306 322 307
f 299 315 300
f 308 322 323
f 301 315 316
f 313 297 328
f 206 327 342
f 320 336 321
f 313 329 314
f 321 337 322
f 314 330 315
f 323 337 338
f 316 330 331
f 324 338 339
f 317 331 332
f 324 340 325
f 317 333 318
f 326 340 341
f 319 333 334
f 327 341 342
f 319 335 320
f 332 346 347
f 339 355 340
f 332 348 333
f 341 355 356
f 334 348 349
f 341 357 342
f 334 350 335
f 328 297 343
f 206 342 357
f 335 351 336
f 329 343 344
f 336 352 337
f 329 345 330
f 338 352 353
f 331 345 346
f 338 354 339
f 351 365 366
f 344 358 359
f 351 367 352
f 344 360 345
f 353 367 368
f 346 360 361
f 353 369 354
f 346 362 347
f 355 369 370
f 347 363 348
f 356 370 371
f 349 363 364
f 356 372 357
f 349 365 350
f 343 297 358
f 206 357 372
f 369 385 370
f 362 378 363
f 371 385 386
f 364 378 379
f 371 387 372
f 364 380 365
f 358 297 373
f 206 372 387
f 366 380 381
f 359 373 374
f 366 382 367
f 359 375 360
f 368 382 383
f 361 375 376
f 368 384 369
f 362 376 377
f 373 389 374
f 381 397 382
f 374 390 375
f 383 397 398
f 376 390 391
f 383 399 384
f 376 392 377
f 384 400 385
f 377 393 378
f 386 400 401
f 379 393 394
f 386 402 387
f 379 395 380
f 373 297 388
f 206 387 402
f 380 396 381
f 392 408 393
f 401 415 416
f 394 408 409
f 401 417 402
f 394 410 395
f 388 297 403
f 206 402 417
f 396 410 411
f 388 404 389
f 396 412 397
f 390 404 405
f 398 412 413
f 391 405 406
f 398 414 399
f 392 406 407
f 399 415 400
f 411 427 412
f 404 420 405
f 413 427 428
f 405 421 406
f 413 429 414
f 407 421 422
f 414 430 415
f 407 423 408
f 415 431 416
f 409 423 424
f 416 432 417
f 409 425 410
f 403 297 418
f 206 417 432
f 411 425 426
f 403 419 404
f 430 446 431
f 424 438 439
f 431 447 432
f 425 439 440
f 418 297 433
f 206 432 447
f 425 441 426
f 418 434 419
f 426 442 427
f 419 435 420
f 428 442 443
f 420 436 421
f 428 444 429
f 422 436 437
f 430 444 445
f 422 438 423
f 443 457 458
f 436 450 451
f 443 459 444
f 437 451 452
f 444 460 445
f 437 453 438
f 445 461 446
f 439 453 454
f 446 462 447
f 439 455 440
f 433 297 448
f 206 447 462
f 440 456 441
f 434 448 449
f 441 457 442
f 435 449 450
f 462 476 477
f 454 470 455
f 448 297 463
f 206 462 477
f 455 471 456
f 448 464 449
f 456 472 457
f 449 465 450
f 458 472 473
f 450 466 451
f 458 474 459
f 452 466 467
f 459 475 460
f 452 468 453
f 460 476 461
f 454 468 469
f 466 3 4
f 473 480 474
f 467 4 5
f 474 10 475
f 468 5 6
f 475 481 476
f 469 6 7
f 476 482 477
f 470 7 8
f 463 297 1
f 206 477 482
f 470 9 471
f 464 1 2
f 471 478 472
f 465 2 3
f 473 478 479
f 478 20 21
f 3 13 14
f 479 21 22
f 4 14 15
f 480 22 23
f 5 15 16
f 10 23 24
f 6 16 17
f 481 24 25
f 7 17 18
f 8 18 19
f 1 11 12
f 9 19 20
f 3 2 12
f 20 19 34
f 12 27 28
f 20 35 36
f 13 28 29
f 22 21 36
f 14 29 30
f 22 37 38
f 15 30 31
f 23 38 39
f 16 31 32
f 24 39 40
f 17 32 33
f 19 18 33
f 11 26 27
f 38 53 54
f 32 31 46
f 39 54 55
f 32 47 48
f 33 48 49
f 26 41 42
f 34 49 50
f 27 42 43
f 36 35 50
f 28 43 44
f 37 36 51
f 29 44 45
f 37 52 53
f 30 45 46
f 42 57 58
f 51 50 65
f 43 58 59
f 51 66 67
f 44 59 60
f 52 67 68
f 45 60 61
f 53 68 69
f 46 61 62
f 54 69 70
f 48 47 62
f 48 63 64
f 41 56 57
f 49 64 65
f 61 76 77
f 69 84 85
f 63 62 77
f 63 78 79
f 56 71 72
f 64 79 80
f 57 72 73
f 66 65 80
f 58 73 74
f 66 81 82
f 60 59 74
f 68 67 82
f 60 75 76
f 69 68 83
f 81 80 95
f 73 88 89
f 82 81 96
f 75 74 89
f 82 97 98
f 75 90 91
f 84 83 98
f 77 76 91
f 84 99 100
f 77 92 93
f 78 93 94
f 71 86 87
f 79 94 95
f 72 87 88
f 100 99 114
f 92 107 108
f 93 108 109
f 86 101 102
f 94 109 110
f 87 102 103
f 96 95 110
f 89 88 103
f 97 96 111
f 89 104 105
f 97 112 113
f 90 105 106
f 98 113 114
f 92 91 106
f 103 118 119
f 111 126 127
f 104 119 120
f 113 112 127
f 105 120 121
f 114 113 128
f 107 106 121
f 115 114 129
f 107 122 123
f 109 108 123
f 101 116 117
f 109 124 125
f 102 117 118
f 111 110 125
f 122 137 138
f 123 138 139
f 117 116 131
f 124 139 140
f 117 132 133
f 126 125 140
f 118 133 134
f 126 141 142
f 120 119 134
f 128 127 142
f 120 135 136
f 128 143 144
f 122 121 136
f 130 129 144
f 141 156 157
f 134 149 150
f 142 157 158
f 135 150 151
f 144 143 158
f 137 136 151
f 144 159 160
f 137 152 153
f 138 153 154
f 131 146 147
f 139 154 155
f 133 132 147
f 141 140 155
f 133 148 149
f 154 153 168
f 146 161 162
f 154 169 170
f 147 162 163
f 156 155 170
f 148 163 164
f 156 171 172
f 150 149 164
f 158 157 172
f 150 165 166
f 158 173 174
f 152 151 166
f 159 174 175
f 152 167 168
f 173 172 187
f 165 180 181
f 173 188 189
f 167 166 181
f 175 174 189
f 167 182 183
f 168 183 184
f 161 176 177
f 169 184 185
f 162 177 178
f 170 185 186
f 163 178 179
f 171 186 187
f 164 179 180
f 176 191 192
f 184 199 200
f 177 192 193
f 186 185 200
f 179 178 193
f 186 201 202
f 180 179 194
f 188 187 202
f 180 195 196
f 188 203 204
f 182 181 196
f 190 189 204
f 182 197 198
f 184 183 198
f 195 211 212
f 203 219 220
f 197 196 212
f 204 220 221
f 197 213 214
f 198 214 215
f 191 207 208
f 199 215 216
f 193 192 208
f 201 200 216
f 193 209 210
f 201 217 218
f 194 210 211
f 203 202 218
f 215 230 231
f 208 223 224
f 217 216 231
f 209 224 225
f 217 232 233
f 210 225 226
f 218 233 234
f 211 226 227
f 219 234 235
f 213 212 227
f 221 220 235
f 213 228 229
f 214 229 230
f 207 222 223
f 234 249 250
f 228 227 242
f 236 235 250
f 228 243 244
f 229 244 245
f 222 237 238
f 230 245 246
f 224 223 238
f 232 231 246
f 225 224 239
f 232 247 248
f 225 240 241
f 234 233 248
f 226 241 242
f 238 253 254
f 247 246 261
f 240 239 254
f 247 262 263
f 241 240 255
f 248 263 264
f 241 256 257
f 249 264 265
f 243 242 257
f 250 265 266
f 243 258 259
f 244 259 260
f 237 252 253
f 245 260 261
f 258 257 272
f 266 265 280
f 258 273 274
f 260 259 274
f 252 267 268
f 260 275 276
f 253 268 269
f 262 261 276
f 255 254 269
f 262 277 278
f 256 255 270
f 263 278 279
f 256 271 272
f 265 264 279
f 277 276 291
f 269 284 285
f 277 292 293
f 271 270 285
f 279 278 293
f 271 286 287
f 279 294 295
f 273 272 287
f 281 280 295
f 273 288 289
f 274 289 290
f 267 282 283
f 275 290 291
f 268 283 284
f 295 311 312
f 289 288 304
f 289 305 306
f 282 298 299
f 290 306 307
f 283 299 300
f 292 291 307
f 285 284 300
f 292 308 309
f 286 285 301
f 293 309 310
f 286 302 303
f 294 310 311
f 288 287 303
f 308 323 324
f 302 301 316
f 309 324 325
f 302 317 318
f 311 310 325
f 304 303 318
f 311 326 327
f 304 319 320
f 305 320 321
f 298 313 314
f 306 321 322
f 299 314 315
f 308 307 322
f 301 300 315
f 320 335 336
f 313 328 329
f 321 336 337
f 314 329 330
f 323 322 337
f 316 315 330
f 324 323 338
f 317 316 331
f 324 339 340
f 317 332 333
f 326 325 340
f 319 318 333
f 327 326 341
f 319 334 335
f 332 331 346
f 339 354 355
f 332 347 348
f 341 340 355
f 334 333 348
f 341 356 357
f 334 349 350
f 335 350 351
f 329 328 343
f 336 351 352
f 329 344 345
f 338 337 352
f 331 330 345
f 338 353 354
f 351 350 365
f 344 343 358
f 351 366 367
f 344 359 360
f 353 352 367
f 346 345 360
f 353 368 369
f 346 361 362
f 355 354 369
f 347 362 363
f 356 355 370
f 349 348 363
f 356 371 372
f 349 364 365
f 369 384 385
f 362 377 378
f 371 370 385
f 364 363 378
f 371 386 387
f 364 379 380
f 366 365 380
f 359 358 373
f 366 381 382
f 359 374 375
f 368 367 382
f 361 360 375
f 368 383 384
f 362 361 376
f 373 388 389
f 381 396 397
f 374 389 390
f 383 382 397
f 376 375 390
f 383 398 399
f 376 391 392
f 384 399 400
f 377 392 393
f 386 385 400
f 379 378 393
f 386 401 402
f 379 394 395
f 380 395 396
f 392 407 408
f 401 400 415
f 394 393 408
f 401 416 417
f 394 409 410
f 396 395 410
f 388 403 404
f 396 411 412
f 390 389 404
f 398 397 412
f 391 390 405
f 398 413 414
f 392 391 406
f 399 414 415
f 411 426 427
f 404 419 420
f 413 412 427
f 405 420 421
f 413 428 429
f 407 406 421
f 414 429 430
f 407 422 423
f 415 430 431
f 409 408 423
f 416 431 432
f 409 424 425
f 411 410 425
f 403 418 419
f 430 445 446
f 424 423 438
f 431 446 447
f 425 424 439
f 425 440 441
f 418 433 434
f 426 441 442
f 419 434 435
f 428 427 442
f 420 435 436
f 428 443 444
f 422 421 436
f 430 429 444
f 422 437 438
f 443 442 457
f 436 435 450
f 443 458 459
f 437 436 451
f 444 459 460
f 437 452 453
f 445 460 461
f 439 438 453
f 446 461 462
f 439 454 455
f 440 455 456
f 434 433 448
f 441 456 457
f 435 434 449
f 462 461 476
f 454 469 470
f 455 470 471
f 448 463 464
f 456 471 472
f 449 464 465
f 458 457 472
f 450 465 466
f 458 473 474
f 452 451 466
f 459 474 475
f 452 467 468
f 460 475 476
f 454 453 468
f 466 465 3
f 473 479 480
f 467 466 4
f 474 480 10
f 468 467 5
f 475 10 481
f 469 468 6
f 476 481 482
f 470 469 7
f 470 8 9
f 464 463 1
f 471 9 478
f 465 464 2
f 473 472 478
